123.4543545 5654.5675678 123.5445e-3 0.455e5 .54646e12
.345345543 343.3434 0.454545

1234 345.456 443.65e4 123 543E67 321 .345 333 0.345 0.766e-1
0x1234 0b101101 0o03455
00003456 True False False True
